graph er {
 size="8,8"

rankdir=LR;

{rank = same; watcher; files;}

  subgraph cluster_0 {
    label="NLP"

    Stanford_proxy -- {Stanford_muc7 Stanford_colln}
    Spacy_proxy -- Spacy

  }

  subgraph cluster_1 {
    label="BF"
    BruteForce

  }


ER -- {Stanford_proxy Spacy_proxy BruteForce}
"watcher" -- ER
watcher --TIKA
watcher -- ELASTIC
files -- watcher
search -- ELASTIC

proxy -- { files search}



}
