<?xml version="1.0" encoding="UTF-8"?>
<!DOCTYPE svg  PUBLIC '-//W3C//DTD SVG 20010904//EN'  'http://www.w3.org/TR/2001/REC-SVG-20010904/DTD/svg10.dtd'>
<svg width="64pt" height="64pt" version="1.0" viewBox="0 0 128 128" xmlns="http://www.w3.org/2000/svg">
<g transform="translate(0 128) scale(.1 -.1)">
<path d="m695 1249c44-21 75-64 86-119 6-33 7-34 8-6 2 47-35 112-73 130-19 9-40 16-48 16-7-1 5-10 27-21z"/>
<path d="m837 1261c38-4 69-12 79-23 19-18 23-60 10-98-6-19-5-22 4-14 6 6 14 30 17 53 5 35 2 46-17 66-21 22-31 25-89 23l-66-1 62-6z"/>
<path d="m490 1234c-54-25-110-69-110-87 0-5 13 5 29 21 40 39 89 61 131 56 33-3 34-3 5 4-30 8-29 8 13 15 48 8 109 0 118-15 4-6-3-8-17-4-22 6-23 6-4-5 21-12 45-38 45-49 0-4-6-7-14-7s-12 6-9 14c5 11-2 15-23 12-4 0-10 5-14 11-4 7-13 9-20 5-10-6-9-10 4-17 9-5 21-6 28-2 7 5 8 3 3-6s-4-11 3-6c8 5 10 2 6-9-6-14-9-14-23-2-9 8-25 17-36 21-14 4-11-1 9-16 15-12 35-35 43-52l14-31-7 35c-6 34 8 34 19 0 2-8 3-3 1 11-2 16 2 26 10 26s11-9 8-24c-2-13 1-23 7-23 18 0 13 42-9 78-11 17-15 32-10 32 14 0 33-40 41-85l6-40 2 38c3 111-120 161-249 101z"/>
<path d="m860 1233c45-16 52-72 14-102-31-24-19-29 14-5 41 28 19 116-29 113-11 0-11-2 1-6z"/>
<path d="m964 1188c-1-26 2-35 7-27 11 17 12 56 1 63-4 2-8-14-8-36z"/>
<path d="m816 1198c5-8 2-9-11-4-15 5-16 4-6-8 10-11 10-27 3-61l-10-45 32 1c23 1 25 3 9 6s-23 11-23 28c0 13 4 26 9 29s7 16 4 27c-4 16-2 20 8 17 7-2 16-15 20-29 7-24 7-24 8 3 1 17-6 31-18 38-26 13-34 13-25-2z"/>
<path d="m472 1184c-23-16-29-34-12-34 6 0 9 5 8 12-4 18 45 32 78 23l29-8-30-7-30-8 32-1c21-1 42-11 62-32 45-45 38-26-10 26-46 50-85 59-127 29z"/>
<path d="m1011 1156c-7-8-32-22-55-32-25-10-52-32-64-50l-20-31 21 1c11 1 23 8 25 16 5 13 3 13-14 0-12-9-11-5 5 12 13 15 43 36 66 47 42 20 62 37 52 47-2 2-10-2-16-10z"/>
<path d="m453 1137c-17-6-35-16-40-21s0-6 12-1c59 23 101 27 135 13l35-15-55 3c-54 3-54 3-10-5 25-4 55-12 68-19 29-17 28-1-2 27-29 28-96 36-143 18z"/>
<path d="m1033 1115c-6-14-7-25-2-25 11 0 22 25 17 39-1 6-8-1-15-14z"/>
<path d="m870 1100c-9-6-10-10-3-10 6 0 15 5 18 10 8 12 4 12-15 0z"/>
<path d="m490 1091c24-14 66-25 55-13-5 5-23 12-40 16-20 4-25 3-15-3z"/>
<path d="m926 1083c-14-14 9-22 47-17 28 4 56 1 80-9 45-20 49-14 5 9-31 16-121 27-132 17z"/>
<path d="m392 1059c-13-5-28-6-33-3-16 9-57-23-75-59-15-30-14-29 21 11 20 23 42 42 48 42s-2-13-18-30c-16-16-25-33-22-37 4-3 7-1 7 5 0 23 79 65 137 72l58 7-50 1c-27 0-61-3-73-9z"/>
<path d="m840 1060c-8-5-10-10-5-10 6 0 17 5 25 10s11 10 5 10c-5 0-17-5-25-10z"/>
<path d="m951 1051c-10-6-3-9 22-9 20 0 42-3 49-7 7-3 4 1-6 9-22 18-44 20-65 7z"/>
<path d="m400 1030c-13-9-13-10 0-9 8 0 24 4 35 9l20 9h-20c-11 0-27-4-35-9z"/>
<path d="m1073 1020c9-14 16-29 16-35 0-5 9-11 20-13s25-10 33-19c27-34-45-3-89 38-58 53-63 49-9-6 27-29 58-50 82-56 22-6 49-20 62-32 34-32 26-11-15 39-21 24-45 44-55 44s-18 6-18 13c0 8-10 22-22 33l-21 19 16-25z"/>
<path d="m973 1004c9-11 17-25 17-31s7-16 15-23 15-17 15-22c0-6-8-1-17 10-22 24-80 62-70 45 6-9 2-13-10-14-14 0-13-2 5-10 13-5 27-7 31-4 7 4 55-52 56-65 0-3 7-16 14-30l14-24-32 27c-18 15-42 27-54 26-17-1-14-3 9-10 42-12 65-49 71-117 2-31 6-59 9-63 2-4-1-19-7-33-11-23-13-24-24-9-10 13-15 14-31 4-18-12-18-12 4-8 17 4 22 1 22-14 0-12 5-16 15-13 8 4 15 10 15 16 0 5 7 16 15 24 13 14 15 12 15-20 0-19-4-37-8-40s-4-44 0-92c11-114-1-177-57-289-24-50-44-85-44-80-1 13 35 118 47 142 5 10 12 32 15 48 9 45-29-43-58-132-24-78-83-168-116-178-49-16-91-7-145 31-59 40-67 50-94 128-10 28-19 44-19 36s6-33 14-55 15-42 15-45c0-2-18 13-39 34-22 21-51 65-66 97-32 73-42 77-15 7l19-51-39 38c-21 21-36 43-33 48 3 6 1 7-6 3-7-5-18 7-29 33-14 31-21 38-30 29s-15-9-23-1c-22 22-89 179-88 208 1 24 4 18 16-24 8-30 22-65 32-78 18-22 19-22 24-3 7 28 24 25 35-7 9-23 11-24 11-7 1 11-6 29-14 40-8 10-15 31-15 47s-6 27-13 27c-9 0-12-10-9-30 2-16 1-38-3-47-6-16-8-15-20 7-16 28-20 70-6 70 5 0 11 7 14 14 4 11 1 13-11 10-9-3-2 4 17 17s29 25 23 27c-8 2-3 11 10 23 23 20 23 20 1 10-12-6-24-15-27-20s-31-21-62-37c-52-26-85-63-84-96 1-7 7 1 14 18 8 18 20 35 28 39 10 6 11 5 1-6-21-22-15-34 7-14 18 17 20 17 20 1 0-9-7-33-15-54-13-32-13-35 0-18 8 11 17 18 19 15 7-7-25-69-35-69-5 0-9-5-9-12 0-6 13 1 29 16l29 28 22-24 21-23-27-3c-19-3-23-6-14-12 7-4 9-13 6-19-9-14-73-14-82 0-4 8 4 9 27 5l34-7-34 16c-19 8-40 23-47 33-8 9-14 12-14 5 0-6 5-15 10-18 6-4 9-22 8-41l-2-34-27 28c-15 15-42 38-60 51-30 23-31 23-20 4 6-12 20-24 31-28 11-3 29-19 40-36 23-32 78-43 66-14-4 12 0 14 17 10 12-2 35 1 52 8 37 17 52 7 189-127 55-54 138-126 185-162 79-58 90-64 136-64 31 0 60 7 77 18 66 43 208 268 208 331 0 35 9 44 29 29 10-8 9-4-3 10s-15 22-6 22c7 0 10 7 5 18-5 14-4 15 6 5 16-16 65-17 74-3 4 7-2 9-18 5-18-5-31-1-47 15-25 25-24 55 0 233 13 91 13 100-4 132-10 19-26 37-35 40-10 4-8-2 7-18 12-13 22-30 22-38-1-10-5-9-15 5-8 11-15 15-15 9 0-12 25-35 31-28 3 2 4-8 3-23s-2-40-3-55c0-16-5-26-11-22s-10-8-11-27c-1-28-3-26-9 14-5 26-12 52-16 59-5 9-2 10 10 6 15-6 14-3-3 19-22 28-28 50-11 39 6-3 6 5 0 22-4 15-11 44-14 63l-6 35 50-50c31-31 50-58 50-72 0-13 4-23 9-23 9 0 0 48-14 70-3 5 0 7 9 4 8-3 19-22 24-42 6-20 10-29 11-20 2 37-19 67-61 87l-43 21 35-5c19-3 44-15 57-27 17-15 23-17 23-7 0 12 2 11 10-1 14-22 11-81-5-110-8-14-14-34-14-45s11 6 25 39c28 64 26 102-7 132-10 9-19 14-19 9 0-4-6-3-12 3-7 5-33 15-58 22-33 9-59 26-99 68-30 32-47 48-38 36z"/>
<path d="m337 979c-63-25-130-71-156-108-30-41-26-48 5-11 27 31 126 100 144 100 5 0 24 9 42 20 40 24 28 24-35-1z"/>
<path d="m848 973c7-3 16-2 19 1 4 3-2 6-13 5-11 0-14-3-6-6z"/>
<path d="m575 951c-22-10-47-26-55-37-14-18-14-19 7-1 11 10 43 27 69 37 27 11 42 19 34 19s-33-8-55-18z"/>
<path d="m299 924c-12-13-26-21-32-17-6 3-7 1-3-6 5-7-8-29-32-55-41-45-73-94-53-82 6 4 11 1 11-7s-23-29-50-48c-74-50-110-108-110-178 1-32 7-67 16-81 11-19 14-20 10-5-3 11-8 32-11 47-4 15 0 51 9 80 18 62 68 115 163 173 73 44 84 55 118 120l26 49-46-52c-26-29-52-52-58-52s1 12 15 28c29 31 56 78 39 68-6-4-11-3-11 2 0 11 31 39 37 34 3-2 7-2 9 1 2 2-3 4-11 4s-24-11-36-23zm1-34c0-5-14-25-30-44-33-37-24-62 11-30 10 9 22 15 25 12 6-6-46-48-83-67-17-8-22-8-27 5-4 11 12 36 46 74 58 64 58 64 58 50z"/>
<path d="m214 788c-19-23-19-23 2-5 11 9 24 14 29 10 4-5 5-2 1 5-9 16-10 16-32-10z"/>
<path d="m539 889-24-20 28 17c15 9 27 18 27 20 0 8-8 4-31-17z"/>
<path d="m638 893c6-2 18-2 25 0 6 3 1 5-13 5s-19-2-12-5z"/>
<path d="m567 866c-14-13-30-41-36-62-16-56-12-76 5-29 8 22 26 50 40 63 14 12 19 22 12 22-7 1-2 7 12 15 17 10 20 14 9 15-9 0-28-11-42-24zm13-10c0-2-8-10-17-17-16-13-17-12-4 4s21 21 21 13z"/>
<path d="m920 845c-10-12-7-15 17-20 15-3 40-12 55-20 26-13 28-13 25 7-6 38-73 61-97 33z"/>
<path d="m336 821c-9-16-48-55-86-86-39-31-68-60-66-64 3-4-6-18-19-29-14-12-25-27-25-33s13 3 29 20 44 38 63 46c18 8 44 24 58 35 16 13 3 9-33-11-32-17-60-29-63-26-3 2 21 24 52 48 60 46 122 115 111 125-3 3-13-8-21-25z"/>
<path d="m371 834c0-11 3-14 6-6 3 7 2 16-1 19-3 4-6-2-5-13z"/>
<path d="m601 838c-13-4-21-12-17-15 8-8 176-11 176-3 0 3-12 10-27 17-33 13-98 14-132 1z"/>
<path d="m375 789c-4-6-5-12-2-15 2-3 7 2 10 11 7 17 1 20-8 4z"/>
<path d="m602 737c-31-33-27-41 7-16 20 15 36 19 48 14 15-6 13-9-13-16-33-9-61-35-50-46 3-4 13 2 21 13 13 18 14 18 8-3-4-20-1-23 21-23 19 0 26 5 26 19 0 11-6 22-12 24-9 4-9 6 1 6 8 1 25-9 38-20 18-18 25-20 37-10 8 7 20 10 26 6 7-4 6 2-2 14-19 31-35 24-29-12 1-5-3-6-9-2-6 3-8 10-5 15s-5 16-17 24c-15 11-18 16-8 16 13 0 13 2 0 10-26 17-66 11-88-13z"/>
<path d="m849 739c-14-26 2-94 37-156 29-51 30-84 4-108-19-17-26-18-66-7-25 7-50 9-57 5-6-3 18-12 52-19 55-11 66-11 87 2 13 9 29 12 35 8 9-5 10-2 6 10-4 10-10 30-14 44-3 15-12 36-19 47-8 11-14 29-14 40s-6 29-13 40c-27 39-27 54-1 85l26 30h-26c-16 0-30-8-37-21z"/>
<path d="m924 745c-18-14-18-15 7-6 15 5 31 6 40 0 11-7 9-9-7-9-34 0-79-23-82-42-2-10 2-18 8-18s9 4 5 9c-3 5-1 12 5 16 5 3 10 0 10-8 0-19 30-31 44-17 7 7 7 16-2 30-16 27 2 26 30-2l21-21-6 32c-5 24-4 30 6 25 8-5 7-2-2 9-17 21-51 22-77 2z"/>
<path d="m1161 693c-1-67 1-75 30-107 26-30 29-38 19-56-6-12-9-25-5-28 3-3 9 4 12 17 6 23 7 23 20 6 7-11 13-16 13-12 0 14-34 77-42 77-15 0-32 47-38 110l-7 65-2-72z"/>
<path d="m362 719c-13-16-17-27-10-24 13 5 42 45 36 50-2 1-13-11-26-26z"/>
<path d="m1142 725c0-16 2-22 5-12 2 9 2 23 0 30-3 6-5-1-5-18z"/>
<path d="m260 671c-61-32-84-54-94-91l-7-25 18 21c10 12 33 29 51 38 17 9 32 18 32 20 0 7-40-6-46-15-3-5-10-9-15-9-23 0 7 24 56 46 29 12 56 28 60 33 8 14 9 14-55-18z"/>
<path d="m1132 660c0-19 2-27 5-17 2 9 2 25 0 35-3 9-5 1-5-18z"/>
<path d="m100 618c-24-33-30-51-30-94 0-29 3-55 8-57 4-3 5 17 3 45-2 41 2 58 28 99 37 60 32 64-9 7z"/>
<path d="m673 650c-13-5-23-11-23-13 0-8 50 5 56 14 6 11-4 11-33-1z"/>
<path d="m695 629c-16-10-25-19-19-19 7 0 22 9 35 20 30 24 23 24-16-1z"/>
<path d="m570 611c0-8 41-23 47-17 2 1-8 8-22 14s-25 8-25 3z"/>
<path d="m638 603c7-3 16-2 19 1 4 3-2 6-13 5-11 0-14-3-6-6z"/>
<path d="m1120 603c0-6 9-21 21-34l20-24-17 30c-24 39-24 40-24 28z"/>
<path d="m373 567c2-20 6-39 9-43 3-3 5 11 3 31s-6 39-9 42-4-11-3-30z"/>
<path d="m1111 543c-1-44 16-93 32-93 6 0 6 5-1 13-5 6-13 23-17 37l-7 25 21-22c12-13 27-23 33-23s-1 9-16 21c-14 11-30 35-35 52l-9 32-1-42z"/>
<path d="m102 495c-1-32 4-57 15-70l16-20-8 20c-5 11-11 43-15 70l-7 50-1-50z"/>
<path d="m708 503c-28-31-63-83-56-83 3 0 18 18 34 41 26 38 28 39 36 19 9-25-6-60-27-60-8 0-15-4-15-10 0-16 13-11 43 16 24 20 27 27 17 39-7 8-9 26-6 40 8 32 6 31-26-2z"/>
<path d="m795 440c-3-5-1-10 4-10 6 0 11 5 11 10 0 6-2 10-4 10-3 0-8-4-11-10z"/>
<path d="m970 438c0-9 5-20 10-23 13-8 13 5 0 25-8 13-10 13-10-2z"/>
<path d="m755 430c-3-5-2-10 4-10 5 0 13 5 16 10 3 6 2 10-4 10-5 0-13-4-16-10z"/>
<path d="m835 420c3-5 8-10 11-10 2 0 4 5 4 10 0 6-5 10-11 10-5 0-7-4-4-10z"/>
<path d="m920 404c0-8 5-12 10-9 6 4 8 11 5 16-9 14-15 11-15-7z"/>
<path d="m1117 399c7-7 15-10 18-7s-2 9-12 12c-14 6-15 5-6-5z"/>
<path d="m981 381c-8-6-11-16-7-27 5-12 10-14 17-7 16 16 7 45-10 34z"/>
<path d="m645 370c-3-5-1-10 4-10 6 0 11 5 11 10 0 6-2 10-4 10-3 0-8-4-11-10z"/>
<path d="m713 346c-13-6-23-16-23-23s-5-13-11-13c-5 0-7-4-4-10 3-5 1-10-5-10s-8-5-4-11c4-8 9-7 15 2 7 11 13 9 29-11 24-31 25-44 4-36-9 4-2-9 15-29 37-42 39-50 9-34-12 6 2-11 30-40 49-49 80-62 109-43 21 13 53 96 53 137 0 23 9 58 20 80 24 47 25 51 6 36-11-9-20-9-34-2-27 14-34 3-16-25 31-47-10-204-57-219-28-9-61 27-86 95-9 25-24 64-34 88l-18 42h48c26 0 52-5 58-11 7-7 18-3 38 15l28 26-31-6c-21-4-38-2-49 7-11 10-14 10-9 2 9-15 9-15-29-5-18 5-39 4-52-2z"/>
<path d="m624 317c-2-7-1-30 3-51l8-37 11 45c9 40 8 44-5 33-12-10-14-9-8 6 3 9 4 17 1 17-2 0-7-6-10-13z"/>
<path d="m791 235c0-11 4-29 9-40l9-20v20c0 11-4 29-9 40l-9 20v-20z"/>
</g>
</svg>
