[
    {
        "files": {
            "renameExtensions": true
        },
        "fixes": {
            "importExtensions": true
        },
        "include": [
            "src/**/*.{js,jsx}"
        ],
        "project": "./src/tsconfig.json"
    },
    {
        "fixes": {
            "incompleteTypes": true,
            "missingProperties": true,
            "noImplicitAny": true
        },
        "include": [
            "src/**/*.{js,jsx}"
        ],
        "project": "./src/tsconfig.json"
    }
]